127.0.0.1 - - [09/Feb/2024:13:06:32 +0530] "GET / HTTP/1.1" 404 751
0:0:0:0:0:0:0:1 - - [09/Feb/2024:13:06:32 +0530] "GET /EmpWebApp/Login.html HTTP/1.1" 200 474
0:0:0:0:0:0:0:1 - - [09/Feb/2024:13:06:46 +0530] "GET /EmpWebApp/LoginServlet?emailId=abhi@gmail.com&password=1234 HTTP/1.1" 500 1078
0:0:0:0:0:0:0:1 - - [09/Feb/2024:13:06:51 +0530] "GET /EmpWebApp/LoginServlet?emailId=abhi@gmail.com&password=1234 HTTP/1.1" 500 1078
0:0:0:0:0:0:0:1 - - [09/Feb/2024:13:12:54 +0530] "GET /EmpWebApp/LoginServlet?emailId=abhi@gmail.com&password=1234 HTTP/1.1" 500 1078
0:0:0:0:0:0:0:1 - - [09/Feb/2024:13:12:59 +0530] "GET /EmpWebApp/LoginServlet?emailId=abhi@gmail.com&password=1234 HTTP/1.1" 500 1078
