127.0.0.1 - - [14/Feb/2024:09:59:02 +0530] "GET / HTTP/1.1" 404 751
0:0:0:0:0:0:0:1 - - [14/Feb/2024:09:59:03 +0530] "GET /EmpWebApp/Login.html HTTP/1.1" 200 542
0:0:0:0:0:0:0:1 - - [14/Feb/2024:09:59:29 +0530] "POST /EmpWebApp/LoginServlet HTTP/1.1" 500 2029
127.0.0.1 - - [14/Feb/2024:10:01:00 +0530] "GET / HTTP/1.1" 404 751
0:0:0:0:0:0:0:1 - - [14/Feb/2024:10:01:00 +0530] "GET /EmpWebApp/Login.html HTTP/1.1" 304 -
0:0:0:0:0:0:0:1 - - [14/Feb/2024:10:01:14 +0530] "POST /EmpWebApp/LoginServlet HTTP/1.1" 404 767
127.0.0.1 - - [14/Feb/2024:10:02:08 +0530] "GET / HTTP/1.1" 404 751
0:0:0:0:0:0:0:1 - - [14/Feb/2024:10:02:08 +0530] "GET /EmpWebApp/Login.html HTTP/1.1" 304 -
0:0:0:0:0:0:0:1 - - [14/Feb/2024:10:02:14 +0530] "POST /EmpWebApp/LoginServlet HTTP/1.1" 200 342
0:0:0:0:0:0:0:1 - - [14/Feb/2024:10:02:17 +0530] "GET /EmpWebApp/GetAllEmployees HTTP/1.1" 200 1199
0:0:0:0:0:0:0:1 - - [14/Feb/2024:10:02:18 +0530] "GET /EmpWebApp/GetEmployeeById.html HTTP/1.1" 200 266
0:0:0:0:0:0:0:1 - - [14/Feb/2024:10:02:21 +0530] "GET /EmpWebApp/SearchById?empId=101 HTTP/1.1" 200 524
0:0:0:0:0:0:0:1 - - [14/Feb/2024:10:02:38 +0530] "POST /EmpWebApp/LoginServlet HTTP/1.1" 200 356
0:0:0:0:0:0:0:1 - - [14/Feb/2024:10:04:09 +0530] "GET /EmpWebApp/GetAllEmployees HTTP/1.1" 200 1199
0:0:0:0:0:0:0:1 - - [14/Feb/2024:10:12:46 +0530] "GET /EmpWebApp/GetAllEmployees HTTP/1.1" 200 1199
0:0:0:0:0:0:0:1 - - [14/Feb/2024:10:13:54 +0530] "GET /EmpWebApp/Login.html HTTP/1.1" 304 -
0:0:0:0:0:0:0:1 - - [14/Feb/2024:10:13:55 +0530] "GET /EmpWebApp/Login.html HTTP/1.1" 304 -
0:0:0:0:0:0:0:1 - - [14/Feb/2024:10:13:56 +0530] "GET /EmpWebApp/Login.html HTTP/1.1" 304 -
0:0:0:0:0:0:0:1 - - [14/Feb/2024:10:13:56 +0530] "GET /EmpWebApp/Login.html HTTP/1.1" 304 -
0:0:0:0:0:0:0:1 - - [14/Feb/2024:10:13:56 +0530] "GET /EmpWebApp/Login.html HTTP/1.1" 304 -
0:0:0:0:0:0:0:1 - - [14/Feb/2024:10:14:02 +0530] "POST /EmpWebApp/LoginServlet HTTP/1.1" 200 342
0:0:0:0:0:0:0:1 - - [14/Feb/2024:10:14:04 +0530] "GET /EmpWebApp/GetAllEmployees HTTP/1.1" 200 1251
0:0:0:0:0:0:0:1 - - [14/Feb/2024:10:24:09 +0530] "GET /EmpWebApp/GetEmployeeById.html HTTP/1.1" 304 -
0:0:0:0:0:0:0:1 - - [14/Feb/2024:10:24:14 +0530] "GET /EmpWebApp/SearchById?empId=101 HTTP/1.1" 200 517
0:0:0:0:0:0:0:1 - - [14/Feb/2024:10:24:21 +0530] "GET /EmpWebApp/GetAllEmployees HTTP/1.1" 200 1251
0:0:0:0:0:0:0:1 - - [14/Feb/2024:10:40:35 +0530] "GET /EmpWebApp/GetEmployeeById.html HTTP/1.1" 304 -
0:0:0:0:0:0:0:1 - - [14/Feb/2024:10:40:37 +0530] "GET /EmpWebApp/SearchById?empId=101 HTTP/1.1" 200 517
0:0:0:0:0:0:0:1 - - [14/Feb/2024:10:52:21 +0530] "GET /EmpWebApp/HRHome HTTP/1.1" 200 344
0:0:0:0:0:0:0:1 - - [14/Feb/2024:10:55:46 +0530] "GET /EmpWebApp/HRHome HTTP/1.1" 200 344
0:0:0:0:0:0:0:1 - - [14/Feb/2024:10:55:48 +0530] "GET /EmpWebApp/Login.html HTTP/1.1" 200 542
0:0:0:0:0:0:0:1 - - [14/Feb/2024:10:55:59 +0530] "POST /EmpWebApp/LoginServlet HTTP/1.1" 200 249
