INDEX VERSION 1.3+C:\1.TS\fsd60\3. Adv.Java\AdvJavaWorkspace1\.metadata\.plugins\org.eclipse.wst.jsdt.core\indexes
3264176398.index
3837281816.index
242176372.index
1109950703.index
78681814.index
1251574970.index
