127.0.0.1 - - [09/Feb/2024:12:02:16 +0530] "GET / HTTP/1.1" 404 751
127.0.0.1 - - [09/Feb/2024:12:22:00 +0530] "GET / HTTP/1.1" 404 751
0:0:0:0:0:0:0:1 - - [09/Feb/2024:12:22:01 +0530] "GET /WebProject2/Greet.html HTTP/1.1" 200 269
0:0:0:0:0:0:0:1 - - [09/Feb/2024:12:22:06 +0530] "GET /WebProject2/GreetUser?UserName=Abhijit HTTP/1.1" 200 -
127.0.0.1 - - [09/Feb/2024:12:26:39 +0530] "GET / HTTP/1.1" 404 751
0:0:0:0:0:0:0:1 - - [09/Feb/2024:12:26:40 +0530] "GET /WebProject2/Greet.html HTTP/1.1" 200 265
0:0:0:0:0:0:0:1 - - [09/Feb/2024:12:27:01 +0530] "GET /WebProject2/Greet?UserName=Abhijit HTTP/1.1" 200 69
